4	5.000000	9.886034e-01	5.953867e-03	63	1.220703e-04	ModulationOrder / EbNo[dB] / aproximateBER / theoreticalBER / FSE Ntaps / FSE dd step size
4	5.000000	8.980770e-01	5.953867e-03	63	1.220703e-04	ModulationOrder / EbNo[dB] / aproximateBER / theoreticalBER / FSE Ntaps / FSE dd step size
4	5.000000	8.985356e-01	5.953867e-03	63	1.220703e-04	ModulationOrder / EbNo[dB] / aproximateBER / theoreticalBER / FSE Ntaps / FSE dd step size
